…
The `Segy.image` function performs the additional step of georeferencing
the matrix over a structured grid, returning a `GeoTable` object:

```julia
julia> img = Segy.image(seismic)
```
<details>
<summary>Click to expand output</summary>
<pre>
                                          2695000×2 GeoTable over 350×7700 StructuredGrid
┌────────────┬─────────────────────────────────────────────────────────────────────────────────────────────────────────────────────┐
│   signal   │                                                      geometry                                                       │
│ Continuous │                                                     Quadrangle                                                      │
│ [NoUnits]  │                                                � Cartesian{NoDatum}                                                 │
├────────────┼─────────────────────────────────────────────────────────────────────────────────────────────────────────────────────┤
│  1497.87   │       Quadrangle((x: 4.66048e5 m, y: 7.19656e6 m, z: 0.0 m), ..., (x: 4.66055e5 m, y: 7.19659e6 m, z: 0.0 m))       │
│  1497.87   │   Quadrangle((x: 4.66048e5 m, y: 7.19656e6 m, z: 55694.7 m), ..., (x: 4.66055e5 m, y: 7.19659e6 m, z: 55694.7 m))   │
│  1494.58   │ Quadrangle((x: 4.66048e5 m, y: 7.19656e6 m, z: 1.11389e5 m), ..., (x: 4.66055e5 m, y: 7.19659e6 m, z: 1.11389e5 m)) │
│  1491.23   │  Quadrangle((x: 4.66048e5 m, y: 7.19656e6 m, z: 167084.0 m), ..., (x: 4.66055e5 m, y: 7.19659e6 m, z: 167084.0 m))  │
│  1487.38   │ Quadrangle((x: 4.66048e5 m, y: 7.19656e6 m, z: 2.22779e5 m), ..., (x: 4.66055e5 m, y: 7.19659e6 m, z: 2.22779e5 m)) │
│  1484.58   │ Quadrangle((x: 4.66048e5 m, y: 7.19656e6 m, z: 2.78473e5 m), ..., (x: 4.66055e5 m, y: 7.19659e6 m, z: 2.78473e5 m)) │
│  1484.19   │  Quadrangle((x: 4.66048e5 m, y: 7.19656e6 m, z: 334168.0 m), ..., (x: 4.66055e5 m, y: 7.19659e6 m, z: 334168.0 m))  │
│  1486.54   │ Quadrangle((x: 4.66048e5 m, y: 7.19656e6 m, z: 3.89863e5 m), ..., (x: 4.66055e5 m, y: 7.19659e6 m, z: 3.89863e5 m)) │
│  1488.79   │ Quadrangle((x: 4.66048e5 m, y: 7.19656e6 m, z: 4.45557e5 m), ..., (x: 4.66055e5 m, y: 7.19659e6 m, z: 4.45557e5 m)) │
│  1491.16   │ Quadrangle((x: 4.66048e5 m, y: 7.19656e6 m, z: 5.01252e5 m), ..., (x: 4.66055e5 m, y: 7.19659e6 m, z: 5.01252e5 m)) │
│     ⋮      │                                                          ⋮                                                          │
└────────────┴─────────────────────────────────────────────────────────────────────────────────────────────────────────────────────┘
                                                                                                                2694990 rows omitted
…
